<svg version='1.1' width='2048' height='2048' xmlns:='http://www.w3.org/2000/svg' xmlns:dc='http://purl.org/dc/elements/1.1/' xmlns:cc='http://creativecommons.org/ns#' xmlns:rdf='http://www.w3.org/1999/02/22-rdf-syntax-ns#'>
  <metadata>
    <rdf:RDF>
      <cc:Work>
        <dc:subject>
          <rdf:Bag>
            <rdf:li>Directional</rdf:li>
          </rdf:Bag>
        </dc:subject>
      </cc:Work>
    </rdf:RDF>
  </metadata>
  <g transform='translate(448, 1664) scale(1, -1)'>
    <path d='M1075 672q0 -13 -10 -23l-466 -466q-10 -10 -23 -10t-23 10l-466 466q-10 10 -10 23t10 23l50 50q10 10 23 10t23 -10l393 -393l393 393q10 10 23 10t23 -10l50 -50q10 -10 10 -23zM1075 1056q0 -13 -10 -23l-466 -466q-10 -10 -23 -10t-23 10l-466 466q-10 10 -10 23 t10 23l50 50q10 10 23 10t23 -10l393 -393l393 393q10 10 23 10t23 -10l50 -50q10 -10 10 -23z'/>
  </g>
</svg>