<svg version='1.1' width='2048' height='2048' xmlns:='http://www.w3.org/2000/svg' xmlns:dc='http://purl.org/dc/elements/1.1/' xmlns:cc='http://creativecommons.org/ns#' xmlns:rdf='http://www.w3.org/1999/02/22-rdf-syntax-ns#'>
  <metadata>
    <rdf:RDF>
      <cc:Work>
        <dc:subject>
          <rdf:Bag>
            <rdf:li>duplicate</rdf:li>
            <rdf:li>editor</rdf:li>
            <rdf:li>files</rdf:li>
            <rdf:li>outlined</rdf:li>
            <rdf:li>text</rdf:li>
            <rdf:li>Text Editor</rdf:li>
          </rdf:Bag>
        </dc:subject>
      </cc:Work>
    </rdf:RDF>
  </metadata>
  <g transform='translate(128, 1664) scale(1, -1)'>
    <path d='M1696 1152q40 0 68 -28t28 -68v-1216q0 -40 -28 -68t-68 -28h-960q-40 0 -68 28t-28 68v288h-544q-40 0 -68 28t-28 68v672q0 40 20 88t48 76l408 408q28 28 76 48t88 20h416q40 0 68 -28t28 -68v-328q68 40 128 40h416zM1152 939l-299 -299h299v299zM512 1323l-299 -299 h299v299zM708 676l316 316v416h-384v-416q0 -40 -28 -68t-68 -28h-416v-640h512v256q0 40 20 88t48 76zM1664 -128v1152h-384v-416q0 -40 -28 -68t-68 -28h-416v-640h896z'/>
  </g>
</svg>