<svg version='1.1' width='2048' height='2048' xmlns:='http://www.w3.org/2000/svg' xmlns:dc='http://purl.org/dc/elements/1.1/' xmlns:cc='http://creativecommons.org/ns#' xmlns:rdf='http://www.w3.org/1999/02/22-rdf-syntax-ns#'>
  <metadata>
    <rdf:RDF>
      <cc:Work>
        <dc:subject>
          <rdf:Bag>
            <rdf:li>application</rdf:li>
            <rdf:li>outlined</rdf:li>
            <rdf:li>web</rdf:li>
            <rdf:li>Web Application</rdf:li>
          </rdf:Bag>
        </dc:subject>
      </cc:Work>
    </rdf:RDF>
  </metadata>
  <g transform='translate(256, 1664) scale(1, -1)'>
    <path d='M1407 710q0 44 -7 113.5t-18 96.5q-12 30 -17 44t-9 36.5t-4 48.5q0 23 5 68.5t5 67.5q0 37 -10 55q-4 1 -13 1q-19 0 -58 -4.5t-59 -4.5q-60 0 -176 24t-175 24q-43 0 -94.5 -11.5t-85 -23.5t-89.5 -34q-137 -54 -202 -103q-96 -73 -159.5 -189.5t-88 -236t-24.5 -248.5 q0 -40 12.5 -120t12.5 -121q0 -23 -11 -66.5t-11 -65.5t12 -36.5t34 -14.5q24 0 72.5 11t73.5 11q57 0 169.5 -15.5t169.5 -15.5q181 0 284 36q129 45 235.5 152.5t166 245.5t59.5 275zM1535 712q0 -165 -70 -327.5t-196 -288t-281 -180.5q-124 -44 -326 -44 q-57 0 -170 14.5t-169 14.5q-24 0 -72.5 -14.5t-73.5 -14.5q-73 0 -123.5 55.5t-50.5 128.5q0 24 11 68t11 67q0 40 -12.5 120.5t-12.5 121.5q0 111 18 217.5t54.5 209.5t100.5 194t150 156q78 59 232 120q194 78 316 78q60 0 175.5 -24t173.5 -24q19 0 57 5t58 5 q81 0 118 -50.5t37 -134.5q0 -23 -5 -68t-5 -68q0 -10 1 -18.5t3 -17t4 -13.5t6.5 -16t6.5 -17q16 -40 25 -118.5t9 -136.5z'/>
  </g>
</svg>