<svg version='1.1' width='2048' height='2048' xmlns:='http://www.w3.org/2000/svg' xmlns:dc='http://purl.org/dc/elements/1.1/' xmlns:cc='http://creativecommons.org/ns#' xmlns:rdf='http://www.w3.org/1999/02/22-rdf-syntax-ns#'>
  <metadata>
    <rdf:RDF>
      <cc:Work>
        <dc:subject>
          <rdf:Bag>
            <rdf:li>application</rdf:li>
            <rdf:li>web</rdf:li>
            <rdf:li>Web Application</rdf:li>
          </rdf:Bag>
        </dc:subject>
      </cc:Work>
    </rdf:RDF>
  </metadata>
  <g transform='translate(512, 1664) scale(1, -1)'>
    <path d='M32 1280h704q13 0 22.5 -9.5t9.5 -23.5v-863h192q40 0 58 -37t-9 -69l-320 -384q-18 -22 -49 -22t-49 22l-320 384q-26 31 -9 69q18 37 58 37h192v640h-320q-14 0 -25 11l-160 192q-13 14 -4 34q9 19 29 19z'/>
  </g>
</svg>