<svg version='1.1' width='2048' height='2048' xmlns:='http://www.w3.org/2000/svg' xmlns:dc='http://purl.org/dc/elements/1.1/' xmlns:cc='http://creativecommons.org/ns#' xmlns:rdf='http://www.w3.org/1999/02/22-rdf-syntax-ns#'>
  <metadata>
    <rdf:RDF>
      <cc:Work>
        <dc:subject>
          <rdf:Bag>
            <rdf:li>Gender</rdf:li>
          </rdf:Bag>
        </dc:subject>
      </cc:Work>
    </rdf:RDF>
  </metadata>
  <g transform='translate(64, 1664) scale(1, -1)'>
    <path d='M1536 1120q0 14 9 23t23 9h288q26 0 45 -19t19 -45v-288q0 -14 -9 -23t-23 -9h-64q-14 0 -23 9t-9 23v134l-254 -255q76 -95 107.5 -214t9.5 -247q-31 -182 -166 -312t-318 -156q-210 -29 -384.5 80t-241.5 300q-117 6 -221 57.5t-177.5 133t-113.5 192.5t-32 230 q9 135 78 252t182 191.5t248 89.5q118 14 227.5 -19t198.5 -103l255 254h-134q-14 0 -23 9t-9 23v64q0 14 9 23t23 9h288q26 0 45 -19t19 -45v-288q0 -14 -9 -23t-23 -9h-64q-14 0 -23 9t-9 23v134l-254 -255q59 -74 93 -169q182 -9 328 -124l255 254h-134q-14 0 -23 9 t-9 23v64zM1024 704q0 20 -4 58q-162 -25 -271 -150t-109 -292q0 -20 4 -58q162 25 271 150t109 292zM128 704q0 -168 111 -294t276 -149q-3 29 -3 59q0 210 135 369.5t338 196.5q-53 120 -163.5 193t-245.5 73q-185 0 -316.5 -131.5t-131.5 -316.5zM1088 -128 q185 0 316.5 131.5t131.5 316.5q0 168 -111 294t-276 149q3 -29 3 -59q0 -210 -135 -369.5t-338 -196.5q53 -120 163.5 -193t245.5 -73z'/>
  </g>
</svg>