<svg version='1.1' width='2048' height='2048' xmlns:='http://www.w3.org/2000/svg' xmlns:dc='http://purl.org/dc/elements/1.1/' xmlns:cc='http://creativecommons.org/ns#' xmlns:rdf='http://www.w3.org/1999/02/22-rdf-syntax-ns#'>
  <metadata>
    <rdf:RDF>
      <cc:Work>
        <dc:subject>
          <rdf:Bag>
            <rdf:li>Brand</rdf:li>
          </rdf:Bag>
        </dc:subject>
      </cc:Work>
    </rdf:RDF>
  </metadata>
  <g transform='translate(256, 1664) scale(1, -1)'>
    <path d='M1242 889q0 80 -57 136.5t-137 56.5t-136.5 -57t-56.5 -136q0 -80 56.5 -136.5t136.5 -56.5t137 56.5t57 136.5zM632 301q0 -83 -58 -140.5t-140 -57.5q-56 0 -103 29t-72 77q52 -20 98 -40q60 -24 120 1.5t85 86.5q24 60 -1.5 120t-86.5 84l-82 33q22 5 42 5 q82 0 140 -57.5t58 -140.5zM1536 1120v-960q0 -119 -84.5 -203.5t-203.5 -84.5h-960q-119 0 -203.5 84.5t-84.5 203.5v153l172 -69q20 -92 93.5 -152t168.5 -60q104 0 181 70t87 173l345 252q150 0 255.5 105.5t105.5 254.5q0 150 -105.5 255.5t-255.5 105.5 q-148 0 -253 -104.5t-107 -252.5l-225 -322q-9 1 -28 1q-75 0 -137 -37l-297 119v468q0 119 84.5 203.5t203.5 84.5h960q119 0 203.5 -84.5t84.5 -203.5zM1289 887q0 -100 -71 -170.5t-171 -70.5t-170.5 70.5t-70.5 170.5t70.5 171t170.5 71q101 0 171.5 -70.5t70.5 -171.5z '/>
  </g>
</svg>