<svg version='1.1' width='2048' height='2048' xmlns:='http://www.w3.org/2000/svg' xmlns:dc='http://purl.org/dc/elements/1.1/' xmlns:cc='http://creativecommons.org/ns#' xmlns:rdf='http://www.w3.org/1999/02/22-rdf-syntax-ns#'>
  <metadata>
    <rdf:RDF>
      <cc:Work>
        <dc:subject>
          <rdf:Bag>
            <rdf:li>Brand</rdf:li>
          </rdf:Bag>
        </dc:subject>
      </cc:Work>
    </rdf:RDF>
  </metadata>
  <g transform='translate(384, 1664) scale(1, -1)'>
    <path d='M1259 283v-66q0 -85 -57.5 -144.5t-138.5 -59.5h-57l-260 -269v269h-529q-81 0 -138.5 59.5t-57.5 144.5v66h1238zM1259 609v-255h-1238v255h1238zM1259 937v-255h-1238v255h1238zM1259 1077v-67h-1238v67q0 84 57.5 143.5t138.5 59.5h846q81 0 138.5 -59.5t57.5 -143.5z '/>
  </g>
</svg>