<svg version='1.1' width='2048' height='2048' xmlns:='http://www.w3.org/2000/svg' xmlns:dc='http://purl.org/dc/elements/1.1/' xmlns:cc='http://creativecommons.org/ns#' xmlns:rdf='http://www.w3.org/1999/02/22-rdf-syntax-ns#'>
  <metadata>
    <rdf:RDF>
      <cc:Work>
        <dc:subject>
          <rdf:Bag>
            <rdf:li>editor</rdf:li>
            <rdf:li>exponential</rdf:li>
            <rdf:li>text</rdf:li>
            <rdf:li>Text Editor</rdf:li>
          </rdf:Bag>
        </dc:subject>
      </cc:Work>
    </rdf:RDF>
  </metadata>
  <g transform='translate(256, 1664) scale(1, -1)'>
    <path d='M897 167v-167h-248l-159 252l-24 42q-8 9 -11 21h-3l-9 -21q-10 -20 -25 -44l-155 -250h-258v167h128l197 291l-185 272h-137v168h276l139 -228q2 -4 23 -42q8 -9 11 -21h3q3 9 11 21l25 42l140 228h257v-168h-125l-184 -267l204 -296h109zM1534 846v-206h-514l-3 27 q-4 28 -4 46q0 64 26 117t65 86.5t84 65t84 54.5t65 54t26 64q0 38 -29.5 62.5t-70.5 24.5q-51 0 -97 -39q-14 -11 -36 -38l-105 92q26 37 63 66q83 65 188 65q110 0 178 -59.5t68 -158.5q0 -56 -24.5 -103t-62 -76.5t-81.5 -58.5t-82 -50.5t-65.5 -51.5t-30.5 -63h232v80 h126z'/>
  </g>
</svg>