<svg version='1.1' width='2048' height='2048' xmlns:='http://www.w3.org/2000/svg' xmlns:dc='http://purl.org/dc/elements/1.1/' xmlns:cc='http://creativecommons.org/ns#' xmlns:rdf='http://www.w3.org/1999/02/22-rdf-syntax-ns#'>
  <metadata>
    <rdf:RDF>
      <cc:Work>
        <dc:subject>
          <rdf:Bag>
            <rdf:li>application</rdf:li>
            <rdf:li>close</rdf:li>
            <rdf:li>cross</rdf:li>
            <rdf:li>exit</rdf:li>
            <rdf:li>remove</rdf:li>
            <rdf:li>web</rdf:li>
            <rdf:li>x</rdf:li>
            <rdf:li>Web Application</rdf:li>
          </rdf:Bag>
        </dc:subject>
      </cc:Work>
    </rdf:RDF>
  </metadata>
  <g transform='translate(320, 1664) scale(1, -1)'>
    <path d='M1298 214q0 -40 -28 -68l-136 -136q-28 -28 -68 -28t-68 28l-294 294l-294 -294q-28 -28 -68 -28t-68 28l-136 136q-28 28 -28 68t28 68l294 294l-294 294q-28 28 -28 68t28 68l136 136q28 28 68 28t68 -28l294 -294l294 294q28 28 68 28t68 -28l136 -136q28 -28 28 -68 t-28 -68l-294 -294l294 -294q28 -28 28 -68z'/>
  </g>
</svg>