<svg version='1.1' width='2048' height='2048' xmlns:='http://www.w3.org/2000/svg' xmlns:dc='http://purl.org/dc/elements/1.1/' xmlns:cc='http://creativecommons.org/ns#' xmlns:rdf='http://www.w3.org/1999/02/22-rdf-syntax-ns#'>
  <metadata>
    <rdf:RDF>
      <cc:Work>
        <dc:subject>
          <rdf:Bag>
            <rdf:li>application</rdf:li>
            <rdf:li>close</rdf:li>
            <rdf:li>exit</rdf:li>
            <rdf:li>outlined</rdf:li>
            <rdf:li>web</rdf:li>
            <rdf:li>x</rdf:li>
            <rdf:li>Web Application</rdf:li>
          </rdf:Bag>
        </dc:subject>
      </cc:Work>
    </rdf:RDF>
  </metadata>
  <g transform='translate(256, 1664) scale(1, -1)'>
    <path d='M1097 457l-146 -146q-10 -10 -23 -10t-23 10l-137 137l-137 -137q-10 -10 -23 -10t-23 10l-146 146q-10 10 -10 23t10 23l137 137l-137 137q-10 10 -10 23t10 23l146 146q10 10 23 10t23 -10l137 -137l137 137q10 10 23 10t23 -10l146 -146q10 -10 10 -23t-10 -23 l-137 -137l137 -137q10 -10 10 -23t-10 -23zM1312 640q0 148 -73 273t-198 198t-273 73t-273 -73t-198 -198t-73 -273t73 -273t198 -198t273 -73t273 73t198 198t73 273zM1536 640q0 -209 -103 -385.5t-279.5 -279.5t-385.5 -103t-385.5 103t-279.5 279.5t-103 385.5 t103 385.5t279.5 279.5t385.5 103t385.5 -103t279.5 -279.5t103 -385.5z'/>
  </g>
</svg>