<svg version='1.1' width='2048' height='2048' xmlns:='http://www.w3.org/2000/svg' xmlns:dc='http://purl.org/dc/elements/1.1/' xmlns:cc='http://creativecommons.org/ns#' xmlns:rdf='http://www.w3.org/1999/02/22-rdf-syntax-ns#'>
  <metadata>
    <rdf:RDF>
      <cc:Work>
        <dc:subject>
          <rdf:Bag>
            <rdf:li>application</rdf:li>
            <rdf:li>web</rdf:li>
            <rdf:li>Web Application</rdf:li>
          </rdf:Bag>
        </dc:subject>
      </cc:Work>
    </rdf:RDF>
  </metadata>
  <g transform='translate(0, 1664) scale(1, -1)'>
    <path d='M1152 640q0 104 -40.5 198.5t-109.5 163.5t-163.5 109.5t-198.5 40.5t-198.5 -40.5t-163.5 -109.5t-109.5 -163.5t-40.5 -198.5t40.5 -198.5t109.5 -163.5t163.5 -109.5t198.5 -40.5t198.5 40.5t163.5 109.5t109.5 163.5t40.5 198.5zM1920 640q0 104 -40.5 198.5 t-109.5 163.5t-163.5 109.5t-198.5 40.5h-386q119 -90 188.5 -224t69.5 -288t-69.5 -288t-188.5 -224h386q104 0 198.5 40.5t163.5 109.5t109.5 163.5t40.5 198.5zM2048 640q0 -130 -51 -248.5t-136.5 -204t-204 -136.5t-248.5 -51h-768q-130 0 -248.5 51t-204 136.5 t-136.5 204t-51 248.5t51 248.5t136.5 204t204 136.5t248.5 51h768q130 0 248.5 -51t204 -136.5t136.5 -204t51 -248.5z'/>
  </g>
</svg>